{'4FGL J0330.6+0438': {'Prefactor': '2.76521',
'Index': '2.32425',
'Scale': '1271.56',
'Npred': '0.0130065',
'Flux': '7.7075e-09',
},
'4FGL J0333.3+0233': {'Prefactor': '1.85817',
'Index': '1.97175',
'Scale': '3299.13',
'Npred': '0.0030954',
'Flux': '1.88574e-09',
},
'4FGL J0338.5+1302': {'norm': '1.73309',
'alpha': '1.61021',
'beta': '0.138595',
'Eb': '3142.37',
'Npred': '0.00331867',
'Flux': '3.77566e-09',
},
'4FGL J0339.5-0146': {'norm': '3.36177',
'alpha': '2.2732',
'beta': '0.0742414',
'Eb': '525.603',
'Npred': '0.224656',
'Flux': '1.04034e-07',
},
'4FGL J0340.5-0256': {'Prefactor': '6.14056',
'Index': '2.24008',
'Scale': '2100.64',
'Npred': '0.00944232',
'Flux': '4.54226e-09',
},
'4FGL J0348.8-0828': {'Prefactor': '8.43939',
'Index': '2.26563',
'Scale': '1498.47',
'Npred': '0.00489403',
'Flux': '3.07569e-09',
},
'4FGL J0350.0+0640': {'Prefactor': '6.18109',
'Index': '1.58668',
'Scale': '17167.8',
'Npred': '0.00249523',
'Flux': '3.66892e-10',
},
'4FGL J0357.2+2320': {'Prefactor': '1.10504',
'Index': '2.25196',
'Scale': '1703.43',
'Npred': '0.00855093',
'Flux': '5.23642e-09',
},
'4FGL J0357.2-0319': {'Prefactor': '2.19176',
'Index': '1.66679',
'Scale': '9871.79',
'Npred': '0.00411261',
'Flux': '6.90327e-10',
},
'4FGL J0358.6+0634': {'Prefactor': '1.02704',
'Index': '2.56053',
'Scale': '762.337',
'Npred': '0.36076',
'Flux': '1.19578e-08',
},
'4FGL J0359.4-0236': {'Prefactor': '2.51974',
'Index': '1.65612',
'Scale': '8742.2',
'Npred': '0.00529593',
'Flux': '6.27705e-10',
},
'4FGL J0401.3+0412': {'Prefactor': '4.84299',
'Index': '2.52993',
'Scale': '962.765',
'Npred': '0.391623',
'Flux': '9.75509e-09',
},
'4FGL J0401.7+2112': {'Prefactor': '1.05673',
'Index': '2.4291',
'Scale': '938.333',
'Npred': '0.0649408',
'Flux': '1.70344e-08',
},
'4FGL J0405.6-1308': {'Prefactor': '3.81304',
'Index': '2.5449',
'Scale': '566.849',
'Npred': '0.0346666',
'Flux': '2.04378e-08',
},
'4FGL J0406.2+0639': {'Prefactor': '4.77103',
'Index': '2.35047',
'Scale': '2111.51',
'Npred': '0.407124',
'Flux': '4.59169e-09',
},
'4FGL J0407.5+0741': {'Prefactor': '6.20369',
'Index': '2.28637',
'Scale': '1227.69',
'Npred': '1.62162',
'Flux': '1.49183e-08',
},
'4FGL J0409.2+2542': {'Prefactor': '2.36144',
'Index': '2.08931',
'Scale': '3147.05',
'Npred': '0.0046163',
'Flux': '2.92298e-09',
},
'4FGL J0409.8-0359': {'norm': '2.77149',
'alpha': '1.69428',
'beta': '0.304292',
'Eb': '1617.8',
'Npred': '0.0256066',
'Flux': '1.9265e-09',
},
'4FGL J0412.3+0239': {'Prefactor': '2.08205',
'Index': '2.4052',
'Scale': '1305.93',
'Npred': '1.49276',
'Flux': '7.16519e-09',
},
'4FGL J0413.1-0304': {'Prefactor': '1.20546',
'Index': '2.67314',
'Scale': '683.12',
'Npred': '0.608816',
'Flux': '1.22747e-08',
},
'4FGL J0416.9+0105': {'Prefactor': '6.08305',
'Index': '1.88923',
'Scale': '3493.4',
'Npred': '1.73777',
'Flux': '5.62984e-09',
},
'4FGL J0418.1-0252': {'norm': '1.18741',
'alpha': '2.13433',
'beta': '0.188899',
'Eb': '954.657',
'Npred': '0.913891',
'Flux': '8.20377e-09',
},
'4FGL J0421.0-0752': {'Prefactor': '3.27062',
'Index': '2.53222',
'Scale': '961.901',
'Npred': '0.135537',
'Flux': '6.59726e-09',
},
'4FGL J0422.1-0644': {'Prefactor': '3.87365',
'Index': '2.4524',
'Scale': '715.345',
'Npred': '1.12937',
'Flux': '3.32767e-08',
},
'4FGL J0422.3+1951': {'Prefactor': '4.54238',
'Index': '2.06451',
'Scale': '3334.09',
'Npred': '0.124587',
'Flux': '5.94997e-09',
},
'4FGL J0422.8+0225': {'norm': '7.09335',
'alpha': '2.53144',
'beta': '0.707417',
'Eb': '414.022',
'Npred': '2.98001',
'Flux': '9.30266e-09',
},
'4FGL J0423.0-0943': {'norm': '2.22779',
'alpha': '1.8507',
'beta': '0.466073',
'Eb': '1386.07',
'Npred': '0.00596631',
'Flux': '1.12422e-09',
},
'4FGL J0423.1+2106': {'Prefactor': '2.70619',
'Index': '2.30264',
'Scale': '1520.39',
'Npred': '0.165585',
'Flux': '1.09533e-08',
},
'4FGL J0423.3-0120': {'norm': '1.85475',
'alpha': '2.24448',
'beta': '0.0757576',
'Eb': '586.711',
'Npred': '19.368',
'Flux': '7.04974e-08',
},
'4FGL J0424.7+0036': {'Prefactor': '9.4192',
'Index': '2.18387',
'Scale': '1426.89',
'Npred': '8.14094',
'Flux': '2.64271e-08',
},
'4FGL J0427.3+0504': {'Prefactor': '6.65056',
'Index': '2.82395',
'Scale': '468.892',
'Npred': '8.22486',
'Flux': '2.86883e-08',
},
'4FGL J0429.0-0006': {'Prefactor': '1.12491',
'Index': '2.80833',
'Scale': '587.883',
'Npred': '2.36402',
'Flux': '9.01646e-09',
},
'4FGL J0429.8+2843': {'norm': '2.07328',
'alpha': '2.00892',
'beta': '0.150231',
'Eb': '2274.8',
'Npred': '0.00491697',
'Flux': '5.26985e-09',
},
'4FGL J0430.3+1654': {'Prefactor': '1.87927',
'Index': '2.2876',
'Scale': '1852.7',
'Npred': '2.58804',
'Flux': '1.16095e-08',
},
'4FGL J0432.0+1732': {'Prefactor': '1.44965',
'Index': '2.39439',
'Scale': '1582.54',
'Npred': '1.42556',
'Flux': '7.74571e-09',
},
'4FGL J0433.0+0522': {'norm': '1.4416',
'alpha': '2.53467',
'beta': '0.28304',
'Eb': '445.669',
'Npred': '10.2159',
'Flux': '3.08607e-08',
},
'4FGL J0433.6+2905': {'norm': '9.82927',
'alpha': '2.02079',
'beta': '0.0736067',
'Eb': '1890.57',
'Npred': '0.0309026',
'Flux': '2.62096e-08',
},
'4FGL J0434.7+0922': {'Prefactor': '1.0418',
'Index': '2.00627',
'Scale': '2632.02',
'Npred': '2.78038',
'Flux': '7.32247e-09',
},
'4FGL J0436.2-0038': {'Prefactor': '2.09336',
'Index': '2.12634',
'Scale': '2448.34',
'Npred': '0.545712',
'Flux': '1.6697e-09',
},
'4FGL J0436.9+2915': {'norm': '3.5923',
'alpha': '2.28804',
'beta': '0.224086',
'Eb': '1613.14',
'Npred': '0.00715791',
'Flux': '6.56234e-09',
},
'4FGL J0438.4-1254': {'Prefactor': '6.13833',
'Index': '2.47322',
'Scale': '863.374',
'Npred': '0.0713832',
'Flux': '8.62425e-09',
},
'4FGL J0439.2+2151': {'Prefactor': '1.47101',
'Index': '2.4016',
'Scale': '1552.91',
'Npred': '0.225168',
'Flux': '7.62259e-09',
},
'4FGL J0440.4+1440': {'Prefactor': '1.12068',
'Index': '2.31165',
'Scale': '2035.41',
'Npred': '3.14274',
'Flux': '9.06163e-09',
},
'4FGL J0440.8+2749': {'Prefactor': '1.06958',
'Index': '2.08135',
'Scale': '2747.5',
'Npred': '0.0254266',
'Flux': '9.78099e-09',
},
'4FGL J0441.5+1505': {'Prefactor': '2.15518',
'Index': '2.08808',
'Scale': '3990.52',
'Npred': '1.62141',
'Flux': '4.36625e-09',
},
'4FGL J0442.6-0017': {'norm': '4.80109',
'alpha': '2.35939',
'beta': '0.0638358',
'Eb': '416.685',
'Npred': '29.9092',
'Flux': '9.62327e-08',
},
'4FGL J0444.5+0719': {'Prefactor': '8.06121',
'Index': '2.64162',
'Scale': '660.314',
'Npred': '2.28672',
'Flux': '7.19837e-09',
},
'4FGL J0445.7+1535': {'Prefactor': '1.07088',
'Index': '2.63488',
'Scale': '689.283',
'Npred': '3.39096',
'Flux': '1.0616e-08',
},
'4FGL J0447.2+2446': {'norm': '5.50345',
'alpha': '2.30823',
'beta': '0.985815',
'Eb': '1345.49',
'Npred': '0.00540963',
'Flux': '2.0335e-09',
},
'4FGL J0448.6-1632': {'Prefactor': '1.38417',
'Index': '1.91192',
'Scale': '2379.56',
'Npred': '0.0149938',
'Flux': '6.49963e-09',
},
'4FGL J0449.1+1121': {'norm': '2.57434',
'alpha': '2.39523',
'beta': '0.128816',
'Eb': '485.368',
'Npred': '24.7536',
'Flux': '6.95749e-08',
},
'4FGL J0453.3+2843': {'Prefactor': '7.84392',
'Index': '2.5606',
'Scale': '890.297',
'Npred': '0.0396238',
'Flux': '1.35892e-08',
},
'4FGL J0456.2+2702': {'Prefactor': '4.00219',
'Index': '2.37394',
'Scale': '1491.39',
'Npred': '0.094359',
'Flux': '1.78157e-08',
},
'4FGL J0456.3-1634': {'Prefactor': '1.93093',
'Index': '1.98252',
'Scale': '3121.33',
'Npred': '0.00485803',
'Flux': '1.80321e-09',
},
'4FGL J0457.0+0646': {'Prefactor': '7.76208',
'Index': '2.53',
'Scale': '880.174',
'Npred': '4.02981',
'Flux': '1.24622e-08',
},
'4FGL J0458.0+1152': {'Prefactor': '3.94755',
'Index': '1.82945',
'Scale': '7495.68',
'Npred': '0.531672',
'Flux': '1.27938e-09',
},
'4FGL J0459.4+1921': {'Prefactor': '5.0767',
'Index': '1.92437',
'Scale': '5927.48',
'Npred': '0.489727',
'Flux': '1.41686e-09',
},
'4FGL J0501.0+2424': {'Prefactor': '5.74097',
'Index': '1.83053',
'Scale': '5953.71',
'Npred': '0.0164021',
'Flux': '1.2247e-09',
},
'4FGL J0501.2-0158': {'norm': '3.8982',
'alpha': '2.29551',
'beta': '0.0847986',
'Eb': '443.587',
'Npred': '26.2662',
'Flux': '8.40779e-08',
},
'4FGL J0502.2+3016': {'Prefactor': '5.93117',
'Index': '1.96255',
'Scale': '5306.28',
'Npred': '0.00211295',
'Flux': '1.49532e-09',
},
'4FGL J0502.4+0609': {'Prefactor': '8.68492',
'Index': '2.6545',
'Scale': '872.036',
'Npred': '5.15769',
'Flux': '1.64965e-08',
},
'4FGL J0502.5+1340': {'Prefactor': '9.86561',
'Index': '2.25691',
'Scale': '1836.33',
'Npred': '2.03214',
'Flux': '5.59492e-09',
},
'4FGL J0503.5-1116': {'Prefactor': '8.38847',
'Index': '1.86269',
'Scale': '5150.72',
'Npred': '0.0452015',
'Flux': '1.50056e-09',
},
'4FGL J0505.3+0459': {'norm': '1.53841',
'alpha': '2.29442',
'beta': '0.0981775',
'Eb': '814.907',
'Npred': '41.0633',
'Flux': '1.17386e-07',
},
'4FGL J0505.6+0415': {'Prefactor': '2.85603',
'Index': '1.90915',
'Scale': '4545.48',
'Npred': '1.7386',
'Flux': '4.58771e-09',
},
'4FGL J0505.6-1558': {'Prefactor': '3.91084',
'Index': '2.08',
'Scale': '2531.73',
'Npred': '0.0115975',
'Flux': '3.00711e-09',
},
'4FGL J0505.8-0419': {'Prefactor': '5.44761',
'Index': '2.40844',
'Scale': '1099.19',
'Npred': '3.56455',
'Flux': '1.24534e-08',
},
'4FGL J0506.0-0357c': {'norm': '5.13075',
'alpha': '1.95794',
'beta': '0.999963',
'Eb': '2931.38',
'Npred': '0.201683',
'Flux': '3.35323e-10',
},
'4FGL J0506.3-0620c': {'Prefactor': '4.60505',
'Index': '2.543',
'Scale': '820.431',
'Npred': '1.60125',
'Flux': '6.30725e-09',
},
'4FGL J0506.7-0857': {'Prefactor': '8.15528',
'Index': '2.09367',
'Scale': '2193.29',
'Npred': '0.941069',
'Flux': '4.79274e-09',
},
'4FGL J0506.9+0323': {'Prefactor': '2.3065',
'Index': '1.93908',
'Scale': '3719.52',
'Npred': '1.01361',
'Flux': '2.72598e-09',
},
'4FGL J0509.1+1943': {'Prefactor': '2.17868',
'Index': '2.77798',
'Scale': '541.559',
'Npred': '3.27802',
'Flux': '1.33988e-08',
},
'4FGL J0509.4+1012': {'Prefactor': '9.9982',
'Index': '2.42314',
'Scale': '969.86',
'Npred': '5.88362',
'Flux': '1.73014e-08',
},
'4FGL J0509.6-0402': {'Prefactor': '2.23129',
'Index': '2.01875',
'Scale': '3623.98',
'Npred': '1.00917',
'Flux': '3.07763e-09',
},
'4FGL J0510.0+1800': {'norm': '4.55925',
'alpha': '2.06518',
'beta': '0.0881548',
'Eb': '1036.17',
'Npred': '16.2616',
'Flux': '4.22414e-08',
},
'4FGL J0510.4-1809': {'Prefactor': '1.28434',
'Index': '2.44115',
'Scale': '1140.5',
'Npred': '0.00683668',
'Flux': '3.39613e-09',
},
'4FGL J0515.5-0125': {'Prefactor': '1.5295',
'Index': '1.95681',
'Scale': '3774.78',
'Npred': '0.677145',
'Flux': '1.94721e-09',
},
'4FGL J0515.8+1527': {'Prefactor': '1.43129',
'Index': '1.93198',
'Scale': '3265.36',
'Npred': '5.15018',
'Flux': '1.2917e-08',
},
'4FGL J0517.5+0858': {'Prefactor': '2.57632',
'Index': '2.16665',
'Scale': '3321.76',
'Npred': '1.57021',
'Flux': '4.37133e-09',
},
'4FGL J0517.7-1758': {'norm': '6.45734',
'alpha': '2.57911',
'beta': '0.999577',
'Eb': '852.55',
'Npred': '0.00158853',
'Flux': '1.76996e-09',
},
'4FGL J0519.0+0851': {'Prefactor': '1.28618',
'Index': '2.55308',
'Scale': '923.702',
'Npred': '7.84094',
'Flux': '2.41968e-08',
},
'4FGL J0519.6+2744': {'Prefactor': '1.77838',
'Index': '2.10345',
'Scale': '3808.75',
'Npred': '0.0125385',
'Flux': '3.40878e-09',
},
'4FGL J0521.2+1637': {'Prefactor': '1.49587',
'Index': '2.37084',
'Scale': '1563.12',
'Npred': '2.4954',
'Flux': '7.39783e-09',
},
'4FGL J0521.3-1734': {'norm': '4.3819',
'alpha': '2.25886',
'beta': '0.274735',
'Eb': '1165.11',
'Npred': '0.006292',
'Flux': '4.00476e-09',
},
'4FGL J0521.6+0103': {'Prefactor': '1.61289',
'Index': '1.96445',
'Scale': '3904.45',
'Npred': '0.793691',
'Flux': '2.23818e-09',
},
'4FGL J0521.7+2112': {'norm': '5.04445',
'alpha': '1.84688',
'beta': '0.0406404',
'Eb': '1555.23',
'Npred': '6.69113',
'Flux': '8.14742e-08',
},
'4FGL J0524.5+2839': {'Prefactor': '8.04141',
'Index': '2.04201',
'Scale': '3191.26',
'Npred': '0.0217288',
'Flux': '9.09313e-09',
},
'4FGL J0525.8-0052': {'Prefactor': '1.04921',
'Index': '2.0733',
'Scale': '2295.41',
'Npred': '2.15747',
'Flux': '6.48351e-09',
},
'4FGL J0526.3+2246': {'Prefactor': '1.37471',
'Index': '2.07701',
'Scale': '4398.71',
'Npred': '0.0946502',
'Flux': '3.30668e-09',
},
'4FGL J0526.7-1519': {'Prefactor': '6.37528',
'Index': '1.95688',
'Scale': '2591.17',
'Npred': '0.0153549',
'Flux': '3.88776e-09',
},
'4FGL J0527.1+1152': {'Prefactor': '1.19137',
'Index': '2.67006',
'Scale': '759.616',
'Npred': '5.11247',
'Flux': '1.60402e-08',
},
'4FGL J0529.1+0935': {'Prefactor': '2.0746',
'Index': '1.98326',
'Scale': '4198.41',
'Npred': '1.32055',
'Flux': '3.49404e-09',
},
'4FGL J0529.1-0101': {'Prefactor': '7.72658',
'Index': '2.27697',
'Scale': '1805.84',
'Npred': '1.3528',
'Flux': '4.40148e-09',
},
'4FGL J0529.4-0521': {'Prefactor': '1.5861',
'Index': '2.6586',
'Scale': '656.353',
'Npred': '3.44608',
'Flux': '1.42456e-08',
},
'4FGL J0529.9-0224': {'Prefactor': '3.43585',
'Index': '2.46953',
'Scale': '1067.45',
'Npred': '2.30105',
'Flux': '8.1078e-09',
},
'4FGL J0530.9+1332': {'norm': '8.50916',
'alpha': '2.50159',
'beta': '0.243747',
'Eb': '736.406',
'Npred': '18.5281',
'Flux': '5.10606e-08',
},
'4FGL J0531.7+1241c': {'Prefactor': '1.56474',
'Index': '2.75578',
'Scale': '718.728',
'Npred': '6.36124',
'Flux': '2.04742e-08',
},
'4FGL J0532.6+0732': {'norm': '2.05567',
'alpha': '2.26681',
'beta': '0.0878049',
'Eb': '662.455',
'Npred': '35.1597',
'Flux': '1.01051e-07',
},
'4FGL J0533.9+2838': {'Prefactor': '1.9068',
'Index': '3.30965',
'Scale': '157.805',
'Npred': '0.113322',
'Flux': '3.74737e-08',
},
'4FGL J0534.2+2751': {'Prefactor': '4.86277',
'Index': '1.848',
'Scale': '8684.5',
'Npred': '0.00511088',
'Flux': '2.19268e-09',
},
'4FGL J0534.5+2200': {'Prefactor': '1.61779',
'Index1': '1.88687',
'Scale': '1463.41',
'Expfactor': '4.37158',
'Index2': '0.666667',
'Npred': '70.2772',
'Flux': '2.27418e-06',
},
'4FGL J0534.5+2201i': {'norm': '5.5',
'alpha': '1.75',
'beta': '0.08',
'Eb': '10000',
'Npred': '1.79356',
'Flux': '9.72003e-08',
},
'4FGL J0534.5+2201s': {'Prefactor': '2.30826',
'Index': '3.86464',
'Scale': '50.5483',
'Npred': '22.2973',
'Flux': '5.79542e-07',
},
'4FGL J0535.3+0934': {'Prefactor': '2.14657',
'Index': '2.62501',
'Scale': '1328.79',
'Npred': '3.68253',
'Flux': '1.17653e-08',
},
'4FGL J0536.1-1205': {'norm': '2.67695',
'alpha': '1.96015',
'beta': '0.931776',
'Eb': '3450.11',
'Npred': '0.000246302',
'Flux': '2.17173e-10',
},
'4FGL J0536.2+1733': {'Prefactor': '5.47369',
'Index': '2.09156',
'Scale': '2963.78',
'Npred': '1.93537',
'Flux': '6.0103e-09',
},
'4FGL J0537.5+0959': {'Prefactor': '4.24238',
'Index': '2.6237',
'Scale': '1049.56',
'Npred': '3.90341',
'Flux': '1.24893e-08',
},
'4FGL J0539.0+1644': {'norm': '2.94553',
'alpha': '1.60198',
'beta': '0.360804',
'Eb': '4249.02',
'Npred': '0.296375',
'Flux': '4.7156e-10',
},
'4FGL J0539.6+1432': {'Prefactor': '1.81167',
'Index': '2.55689',
'Scale': '869.767',
'Npred': '9.09157',
'Flux': '2.93997e-08',
},
'4FGL J0540.0+1209': {'Prefactor': '1.73029',
'Index': '2.4149',
'Scale': '1488.52',
'Npred': '2.71662',
'Flux': '8.31673e-09',
},
'4FGL J0540.2+0655': {'Prefactor': '2.36742',
'Index': '1.79784',
'Scale': '9692.41',
'Npred': '0.43211',
'Flux': '1.10424e-09',
},
'4FGL J0541.6-0541': {'norm': '4.77055',
'alpha': '2.86279',
'beta': '0.554624',
'Eb': '661.289',
'Npred': '5.05537',
'Flux': '2.10724e-08',
},
'4FGL J0542.9-0913': {'norm': '1.19895',
'alpha': '2.56351',
'beta': '0.14742',
'Eb': '1237.57',
'Npred': '0.915045',
'Flux': '2.81687e-08',
},
'4FGL J0543.9-0418': {'Prefactor': '5.7877',
'Index': '2.56829',
'Scale': '955.389',
'Npred': '2.78692',
'Flux': '1.21633e-08',
},
'4FGL J0544.4+2238': {'Prefactor': '1.56502',
'Index': '2.57256',
'Scale': '1679.11',
'Npred': '0.232037',
'Flux': '1.4128e-08',
},
'4FGL J0545.0+0613': {'Prefactor': '5.43618',
'Index': '2.7712',
'Scale': '442.038',
'Npred': '5.39994',
'Flux': '1.89002e-08',
},
'4FGL J0545.8-0905': {'Prefactor': '4.75244',
'Index': '2.21123',
'Scale': '3094.27',
'Npred': '0.216289',
'Flux': '7.76199e-09',
},
'4FGL J0546.5-1100': {'Prefactor': '5.58425',
'Index': '2.80672',
'Scale': '401.664',
'Npred': '0.205022',
'Flux': '1.53363e-08',
},
'4FGL J0550.9+2552': {'Prefactor': '7.08129',
'Index': '2.60306',
'Scale': '1052.9',
'Npred': '0.078466',
'Flux': '2.02816e-08',
},
'4FGL J0551.7+0446': {'norm': '4.75327',
'alpha': '2.68571',
'beta': '0.774866',
'Eb': '629.948',
'Npred': '4.46228',
'Flux': '1.24481e-08',
},
'4FGL J0552.8+0313': {'Prefactor': '1.5452',
'Index': '2.37095',
'Scale': '1925.15',
'Npred': '3.6451',
'Flux': '1.25257e-08',
},
'4FGL J0553.6+0100': {'norm': '2.13312',
'alpha': '2.58746',
'beta': '0.863652',
'Eb': '738.025',
'Npred': '2.12695',
'Flux': '5.74071e-09',
},
'4FGL J0554.0-0839': {'Prefactor': '7.87631',
'Index': '2.27196',
'Scale': '2046.79',
'Npred': '0.110582',
'Flux': '5.90097e-09',
},
'4FGL J0554.2-0259': {'Prefactor': '9.87811',
'Index': '2.42033',
'Scale': '1738.72',
'Npred': '1.43931',
'Flux': '6.99074e-09',
},
'4FGL J0554.3-1009': {'norm': '1.49037',
'alpha': '2.39942',
'beta': '0.378742',
'Eb': '770.768',
'Npred': '0.0628457',
'Flux': '6.83626e-09',
},
'4FGL J0555.1+0150c': {'norm': '1.21536',
'alpha': '2.63153',
'beta': '0.466614',
'Eb': '1040.69',
'Npred': '3.40732',
'Flux': '9.79429e-09',
},
'4FGL J0555.1+0304': {'norm': '1.62216',
'alpha': '2.96474',
'beta': '0.496019',
'Eb': '1003.66',
'Npred': '5.9143',
'Flux': '1.79811e-08',
},
'4FGL J0557.3-0615': {'Prefactor': '7.03879',
'Index': '1.87257',
'Scale': '6378.25',
'Npred': '0.0627547',
'Flux': '1.93155e-09',
},
'4FGL J0557.6-0721': {'Prefactor': '8.62944',
'Index': '1.98049',
'Scale': '4989.73',
'Npred': '0.0427815',
'Flux': '2.03059e-09',
},
'4FGL J0600.3+1244': {'norm': '6.20155',
'alpha': '1.37402',
'beta': '0.215362',
'Eb': '11246.8',
'Npred': '0.188529',
'Flux': '3.1056e-10',
},
'4FGL J0601.0-1016': {'norm': '1.78641',
'alpha': '2.14407',
'beta': '0.813596',
'Eb': '744.352',
'Npred': '0.0143034',
'Flux': '3.7182e-09',
},
'4FGL J0601.4+2320': {'Prefactor': '2.2198',
'Index': '2.71441',
'Scale': '717.273',
'Npred': '0.147475',
'Flux': '2.72629e-08',
},
'4FGL J0602.7-0007': {'Prefactor': '6.35998',
'Index': '2.24579',
'Scale': '2373.02',
'Npred': '1.26389',
'Flux': '6.26608e-09',
},
'4FGL J0603.9+2159': {'Prefactor': '1.46297',
'Index': '2.34085',
'Scale': '2309.49',
'Npred': '0.108077',
'Flux': '1.69847e-08',
},
'4FGL J0604.9-0000': {'Prefactor': '5.17237',
'Index': '2.07752',
'Scale': '3253.9',
'Npred': '1.06919',
'Flux': '6.6605e-09',
},
'4FGL J0608.0-0835': {'norm': '6.86314',
'alpha': '2.37524',
'beta': '0.0746899',
'Eb': '689.32',
'Npred': '0.288234',
'Flux': '4.24251e-08',
},
'4FGL J0608.6+1149': {'Prefactor': '2.72233',
'Index': '2.21136',
'Scale': '3205.29',
'Npred': '0.375082',
'Flux': '4.80839e-09',
},
'4FGL J0608.8+2034c': {'Prefactor': '3.54898',
'Index': '2.50357',
'Scale': '1711.78',
'Npred': '0.211696',
'Flux': '2.89425e-08',
},
'4FGL J0609.0+2006': {'norm': '1.10355',
'alpha': '2.86083',
'beta': '0.524683',
'Eb': '1224.84',
'Npred': '0.0717264',
'Flux': '1.33152e-08',
},
'4FGL J0609.0+2136': {'norm': '1.05068',
'alpha': '2.41211',
'beta': '0.485691',
'Eb': '1209.39',
'Npred': '0.0213575',
'Flux': '7.63941e-09',
},
'4FGL J0609.2-0247': {'norm': '9.20238',
'alpha': '1.62982',
'beta': '0.176481',
'Eb': '3378.19',
'Npred': '0.0321343',
'Flux': '1.95234e-09',
},
'4FGL J0609.5+1402': {'Prefactor': '7.68622',
'Index': '2.56527',
'Scale': '970.556',
'Npred': '0.679806',
'Flux': '1.6737e-08',
},
'4FGL J0610.7+1656': {'norm': '5.21156',
'alpha': '2.74347',
'beta': '0.463538',
'Eb': '690.599',
'Npred': '0.372572',
'Flux': '2.50957e-08',
},
'4FGL J0612.6+1520c': {'norm': '1.82727',
'alpha': '2.87271',
'beta': '0.686301',
'Eb': '866.274',
'Npred': '0.162128',
'Flux': '1.00108e-08',
},
'4FGL J0613.1+1749': {'Prefactor': '5.24182',
'Index': '2.58462',
'Scale': '1231.45',
'Npred': '0.243608',
'Flux': '2.18004e-08',
},
'4FGL J0613.7-0201': {'Prefactor': '1.70774',
'Index1': '1.28265',
'Scale': '1026.38',
'Expfactor': '9.2816',
'Index2': '0.666667',
'Npred': '0.806222',
'Flux': '4.31505e-08',
},
'4FGL J0614.9+2426': {'Prefactor': '4.19318',
'Index': '2.1991',
'Scale': '2649.93',
'Npred': '0.00765068',
'Flux': '4.71884e-09',
},
'4FGL J0616.5+2235': {'Prefactor': '5.11285',
'Index': '2.01375',
'Scale': '9264.47',
'Npred': '0.0972005',
'Flux': '4.60825e-08',
},
'4FGL J0616.7-1049': {'Prefactor': '6.56622',
'Index': '2.8866',
'Scale': '376.281',
'Npred': '0.040334',
'Flux': '1.59865e-08',
},
'4FGL J0618.7+1211': {'Prefactor': '1.27901',
'Index': '2.92137',
'Scale': '348.441',
'Npred': '0.549293',
'Flux': '2.55796e-08',
},
'4FGL J0618.9+2240c': {'norm': '7.4787',
'alpha': '2.67741',
'beta': '0.343413',
'Eb': '2099.54',
'Npred': '0.0319017',
'Flux': '2.54503e-08',
},
'4FGL J0620.1+2246': {'Prefactor': '3.43153',
'Index': '2.14747',
'Scale': '5038.35',
'Npred': '0.0238619',
'Flux': '1.35401e-08',
},
'4FGL J0620.4+1445': {'Prefactor': '6.5703',
'Index': '2.56277',
'Scale': '1064.7',
'Npred': '0.200632',
'Flux': '1.80641e-08',
},
'4FGL J0621.8+1746': {'Prefactor': '4.29086',
'Index': '1.89619',
'Scale': '7360.71',
'Npred': '0.00685541',
'Flux': '1.65972e-09',
},
'4FGL J0631.1+2020': {'Prefactor': '2.71776',
'Index': '2.37828',
'Scale': '1688.28',
'Npred': '0.0265053',
'Flux': '1.63878e-08',
},
'4FGL J0631.5+1036': {'Prefactor': '7.68731',
'Index1': '1.06218',
'Scale': '1795.39',
'Expfactor': '9.22378',
'Index2': '0.666667',
'Npred': '0.103394',
'Flux': '2.78949e-08',
},
'4FGL J0631.8+0645': {'Prefactor': '5.31724',
'Index1': '0.480251',
'Scale': '2392.94',
'Expfactor': '11.5188',
'Index2': '0.666667',
'Npred': '0.0241046',
'Flux': '8.67456e-09',
},
'4FGL J0632.8+0550': {'Prefactor': '9.22145',
'Index': '1.88319',
'Scale': '16727.8',
'Npred': '0.00795354',
'Flux': '1.60587e-09',
},
'4FGL J0633.7+0632': {'Prefactor': '3.85156',
'Index1': '1.11014',
'Scale': '1381.86',
'Expfactor': '10.7904',
'Index2': '0.666667',
'Npred': '0.385558',
'Flux': '1.01855e-07',
},
'4FGL J0633.9+1746': {'Prefactor': '1.07334',
'Index1': '1.09075',
'Scale': '1585.48',
'Expfactor': '3.25841',
'Index2': '0.789235',
'Npred': '4.62643',
'Flux': '3.99274e-06',
},
'4FGL J0641.7-0320': {'norm': '1.8662',
'alpha': '2.54485',
'beta': '0.186924',
'Eb': '519.463',
'Npred': '0.0880058',
'Flux': '6.22763e-08',
},
'4FGL J0642.4+1048': {'Prefactor': '9.35179',
'Index': '2.62081',
'Scale': '819.559',
'Npred': '0.0342961',
'Flux': '1.43252e-08',
},
'4FGL J0643.3+0857': {'norm': '8.29795',
'alpha': '2.50884',
'beta': '0.174712',
'Eb': '770.602',
'Npred': '0.128923',
'Flux': '6.29164e-08',
},
'IC 443': {'norm': '4.19885',
'alpha': '2.21887',
'beta': '0.123965',
'Eb': '3665.23',
'Npred': '0.644292',
'Flux': '3.97398e-07',
},
'Monoceros': {'norm': '3.11916',
'alpha': '2.10408',
'beta': '0.278292',
'Eb': '755.66',
'Npred': '1.21618',
'Flux': '1.21099e-07',
},
'Rosette': {'norm': '1.65584',
'alpha': '2.1571',
'beta': '0.214727',
'Eb': '882.726',
'Npred': '0.426545',
'Flux': '9.76119e-08',
},
'S 147': {'norm': '6.75047',
'alpha': '2.01951',
'beta': '0.124881',
'Eb': '1107.11',
'Npred': '0.128353',
'Flux': '6.03299e-08',
},
'TXS 0506+056': {'norm': '20.3368 +/- 4.95187',
'alpha': '2.05487 +/- 0.170727',
'beta': '0.109391 +/- 0.116849',
'Eb': '1126.49',
'Npred': '78.9983',
'ROI distance': '0.00832229',
'TS value': '106.864',
'Flux': '2.04313e-07 +/- 5.77649e-08',
},
'gll_iem_v07': {'Prefactor': '0.939001 +/- 0.0351567',
'Index': '0',
'Scale': '100',
'Npred': '3260.18',
'Flux': '0.000489152 +/- 1.83114e-05',
},
'iso_P8R3_SOURCE_V2_v1': {'Normalization': '1.06814 +/- 0.160173',
'Npred': '776.309',
'Flux': '0.000131239 +/- 1.96756e-05',
},
}
